Bootstrap motifbreakR results — mb_bootstrap • tfboot
…
A list of two tibbles. See description and examples.

    Details

    Typically, you want to run this function on a full set of all genes to create
an empirical null distribution. You should run motifbreakR once on all
genes, save this as an RData object, and read it in during bootstrap
resampling. See vignettes.

    Examples

data(vignettedata)
vignettedata$mball
#> # A tibble: 12,689 × 10
#>    gene_id   SNP_id      tf    pctRef pctAlt scoreRef scoreAlt effect alleleDiff
#>    <chr>     <chr>       <chr>  <dbl>  <dbl>    <dbl>    <dbl> <chr>       <dbl>
#>  1 100315917 chr33:5706… ARG80  0.979  0.749     4.23     3.24 strong     -0.993
#>  2 100315917 chr33:5706… ARG81  0.991  0.825     5.89     4.90 strong     -0.982
#>  3 100315917 chr33:5703… ARGFX  0.781  0.889     5.06     5.74 weak        0.677
#>  4 100315917 chr33:5706… ARR1   0.634  0.880     2.53     3.42 strong      0.892
#>  5 100315917 chr33:5707… AT1G…  0.882  0.779     7.60     6.73 strong     -0.861
#>  6 100315917 chr33:5704… AT3G…  0.784  0.892     5.13     5.79 weak        0.666
#>  7 100315917 chr33:5706… ATHB…  0.781  0.890     4.12     4.67 weak        0.552
#>  8 100315917 chr33:5706… ATHB…  0.721  0.868     4.98     5.98 strong      0.993
#>  9 100315917 chr33:5706… ATHB…  0.813  0.966     5.32     6.32 strong      0.998
#> 10 100315917 chr33:5706… ATHB…  0.778  0.931     4.98     5.94 strong      0.963
#> # ℹ 12,679 more rows
#> # ℹ 1 more variable: alleleEffectSize <dbl>
…
