Statistical analysis of TFBS disruption with tfboot • tfboot
…
Additionally, let’s run motifbreakR on all SNPs for promoter
regions in all genes (remember, this entire analysis is
restricted to chromosome 33 only).

mballGR <- motifbreakR(prosnps, pwmList=motifs)

Let’s use tfboot’s mb_to_tibble() function to create a
compact tibble for each of these. We’ll use this data for our
statistical analysis coming up next.

mbres <- mbresGR |> mb_to_tibble()
mball <- mballGR |> mb_to_tibble()

mbres
#> # A tibble: 1,335 × 10
#>    gene_id   SNP_id      tf    pctRef pctAlt scoreRef scoreAlt effect alleleDiff
#>    <chr>     <chr>       <chr>  <dbl>  <dbl>    <dbl>    <dbl> <chr>       <dbl>
#>  1 100316005 chr33:7472… ACE2   0.986  0.783     4.85     3.87 strong     -0.980
#>  2 100316005 chr33:7472… ADR1   0.759  0.917     3.34     4.01 weak        0.673
#>  3 100316005 chr33:7471… AFT2   0.964  0.878     5.50     5.02 weak       -0.480
#>  4 100316005 chr33:7472… AFT2   0.902  0.740     5.15     4.24 strong     -0.911
#>  5 100316005 chr33:7473… AFT2   0.879  0.705     5.02     4.04 strong     -0.980
#>  6 100316005 chr33:7472… AGL42  0.859  0.693     5.14     4.15 strong     -0.986
#>  7 100316005 chr33:7471… AGL55  0.695  0.861     3.97     4.91 strong      0.939
#>  8 100316005 chr33:7472… ALX3   0.972  0.776     4.23     3.43 strong     -0.806
#>  9 100316005 chr33:7473… ALX3   0.919  0.773     4.02     3.42 weak       -0.600
#> 10 100316005 chr33:7473… ARG80  0.731  0.961     3.16     4.15 strong      0.993
#> # ℹ 1,325 more rows
#> # ℹ 1 more variable: alleleEffectSize <dbl>
mball
#> # A tibble: 12,689 × 10
#>    gene_id   SNP_id      tf    pctRef pctAlt scoreRef scoreAlt effect alleleDiff
#>    <chr>     <chr>       <chr>  <dbl>  <dbl>    <dbl>    <dbl> <chr>       <dbl>
#>  1 100315917 chr33:5706… ARG80  0.979  0.749     4.23     3.24 strong     -0.993
#>  2 100315917 chr33:5706… ARG81  0.991  0.825     5.89     4.90 strong     -0.982
#>  3 100315917 chr33:5703… ARGFX  0.781  0.889     5.06     5.74 weak        0.677
#>  4 100315917 chr33:5706… ARR1   0.634  0.880     2.53     3.42 strong      0.892
#>  5 100315917 chr33:5707… AT1G…  0.882  0.779     7.60     6.73 strong     -0.861
#>  6 100315917 chr33:5704… AT3G…  0.784  0.892     5.13     5.79 weak        0.666
#>  7 100315917 chr33:5706… ATHB…  0.781  0.890     4.12     4.67 weak        0.552
#>  8 100315917 chr33:5706… ATHB…  0.721  0.868     4.98     5.98 strong      0.993
#>  9 100315917 chr33:5706… ATHB…  0.813  0.966     5.32     6.32 strong      0.998
#> 10 100315917 chr33:5706… ATHB…  0.778  0.931     4.98     5.94 strong      0.963
#> # ℹ 12,679 more rows
#> # ℹ 1 more variable: alleleEffectSize <dbl>
…
Instead, we can generate the motifbreakR results for all
genes, do this only once, then save those results to file, as we’ve done
above. Then, when we need to compute our bootstrap sampling to create
the empirical null distribution, we only have to bootstrap precomputed
results, rather than bootstrapping the motifbreakR procedure itself.

Demonstration

Let’s look again at our motifbreakR results on our genes of
interest:

# Look at the data
mbres
#> # A tibble: 1,335 × 10
#>    gene_id   SNP_id      tf    pctRef pctAlt scoreRef scoreAlt effect alleleDiff
#>    <chr>     <chr>       <chr>  <dbl>  <dbl>    <dbl>    <dbl> <chr>       <dbl>
#>  1 100316005 chr33:7472… ACE2   0.986  0.783     4.85     3.87 strong     -0.980
#>  2 100316005 chr33:7472… ADR1   0.759  0.917     3.34     4.01 weak        0.673
#>  3 100316005 chr33:7471… AFT2   0.964  0.878     5.50     5.02 weak       -0.480
#>  4 100316005 chr33:7472… AFT2   0.902  0.740     5.15     4.24 strong     -0.911
#>  5 100316005 chr33:7473… AFT2   0.879  0.705     5.02     4.04 strong     -0.980
#>  6 100316005 chr33:7472… AGL42  0.859  0.693     5.14     4.15 strong     -0.986
#>  7 100316005 chr33:7471… AGL55  0.695  0.861     3.97     4.91 strong      0.939
#>  8 100316005 chr33:7472… ALX3   0.972  0.776     4.23     3.43 strong     -0.806
#>  9 100316005 chr33:7473… ALX3   0.919  0.773     4.02     3.42 weak       -0.600
#> 10 100316005 chr33:7473… ARG80  0.731  0.961     3.16     4.15 strong      0.993
#> # ℹ 1,325 more rows
#> # ℹ 1 more variable: alleleEffectSize <dbl>
…
Now, let’s review the motifbreakR on all genes of
interest

# Look at the data (note the number of rows)
mball
#> # A tibble: 12,689 × 10
#>    gene_id   SNP_id      tf    pctRef pctAlt scoreRef scoreAlt effect alleleDiff
#>    <chr>     <chr>       <chr>  <dbl>  <dbl>    <dbl>    <dbl> <chr>       <dbl>
#>  1 100315917 chr33:5706… ARG80  0.979  0.749     4.23     3.24 strong     -0.993
#>  2 100315917 chr33:5706… ARG81  0.991  0.825     5.89     4.90 strong     -0.982
#>  3 100315917 chr33:5703… ARGFX  0.781  0.889     5.06     5.74 weak        0.677
#>  4 100315917 chr33:5706… ARR1   0.634  0.880     2.53     3.42 strong      0.892
#>  5 100315917 chr33:5707… AT1G…  0.882  0.779     7.60     6.73 strong     -0.861
#>  6 100315917 chr33:5704… AT3G…  0.784  0.892     5.13     5.79 weak        0.666
#>  7 100315917 chr33:5706… ATHB…  0.781  0.890     4.12     4.67 weak        0.552
#>  8 100315917 chr33:5706… ATHB…  0.721  0.868     4.98     5.98 strong      0.993
#>  9 100315917 chr33:5706… ATHB…  0.813  0.966     5.32     6.32 strong      0.998
#> 10 100315917 chr33:5706… ATHB…  0.778  0.931     4.98     5.94 strong      0.963
#> # ℹ 12,679 more rows
#> # ℹ 1 more variable: alleleEffectSize <dbl>
…
We can use the mb_bootstrap function to generate an
empirical null distribution given the precomputed set of motifbreakR for
the universe of all genes. This function takes motifbreakR results as a
tibble (from mb_to_tibble), draws boots random
samples of ngenes genes, and returns as a list (1) a wide
tibble with results for each bootstrap, and (2) another tibble with the
distribution of each metric as a column. We set the random number
generator for reproducibility, and we limit the number of bootstrap
resamples here for speed.

set.seed(42)
mbboot <- mb_bootstrap(mball, ngenes=5, boots=250)
mbboot$bootwide
#> # A tibble: 250 × 9
#>     boot genes           ngenes nsnps nstrong alleleDiffAbsMean alleleDiffAbsSum
#>    <int> <chr>            <int> <int>   <int>             <dbl>            <dbl>
#>  1     1 431304;426469;…      5  1062     750             0.797             847.
#>  2     2 426183;395959;…      5  1244     914             0.808            1005.
#>  3     3 102465361;4261…      5   886     655             0.812             720.
#>  4     4 396007;407779;…      5  1514    1139             0.815            1234.
#>  5     5 426883;396544;…      5   925     623             0.787             728.
#>  6     6 425059;429035;…      5  1350    1026             0.821            1109.
#>  7     7 408042;426880;…      5   823     627             0.823             677.
#>  8     8 396170;425058;…      5  1262     910             0.805            1016.
#>  9     9 102466833;4261…      5  1263     963             0.822            1038.
#> 10    10 429035;408042;…      5  1289     987             0.823            1061.
#> # ℹ 240 more rows
#> # ℹ 2 more variables: alleleEffectSizeAbsMean <dbl>,
#> #   alleleEffectSizeAbsSum <dbl>
…
